Getting started with hypnoR • hypnoR
…
new_hypnogram() – the constructor every other hypnoR
function goes through – accepts this directly:

hyp <- new_hypnogram(mrp_hyp)
hyp
#> 
#> ── hypnoR hypnogram ────────────────────────────────────────────────────────────
#> ℹ Epochs: 2650
#> ℹ Epoch length: 30 s
#> ℹ Resolution: aasm
#> ℹ Subject: SC4001
#> # A tibble: 2,650 × 5
#>    epoch time                stage subject_id source 
#>  * <int> <dttm>              <ord> <chr>      <chr>  
#>  1     1 2024-01-01 16:13:00 W     SC4001     mrpheus
#>  2     2 2024-01-01 16:13:30 W     SC4001     mrpheus
#>  3     3 2024-01-01 16:14:00 W     SC4001     mrpheus
#>  4     4 2024-01-01 16:14:30 W     SC4001     mrpheus
#>  5     5 2024-01-01 16:15:00 W     SC4001     mrpheus
#>  6     6 2024-01-01 16:15:30 W     SC4001     mrpheus
#>  7     7 2024-01-01 16:16:00 W     SC4001     mrpheus
#>  8     8 2024-01-01 16:16:30 W     SC4001     mrpheus
#>  9     9 2024-01-01 16:17:00 W     SC4001     mrpheus
#> 10    10 2024-01-01 16:17:30 W     SC4001     mrpheus
#> # ℹ 2,640 more rows
…
