…
[`new_hypnogram()`](https://hypnor.circadia-lab.uk/reference/new_hypnogram.md)
– the constructor every other hypnoR function goes through – accepts
this directly:

``` r

hyp <- new_hypnogram(mrp_hyp)
hyp
#> 
#> ── hypnoR hypnogram ────────────────────────────────────────────────────────────
#> ℹ Epochs: 2650
#> ℹ Epoch length: 30 s
#> ℹ Resolution: aasm
#> ℹ Subject: SC4001
#> # A tibble: 2,650 × 5
#>    epoch time                stage subject_id source 
#>  * <int> <dttm>              <ord> <chr>      <chr>  
#>  1     1 2024-01-01 16:13:00 W     SC4001     mrpheus
#>  2     2 2024-01-01 16:13:30 W     SC4001     mrpheus
#>  3     3 2024-01-01 16:14:00 W     SC4001     mrpheus
#>  4     4 2024-01-01 16:14:30 W     SC4001     mrpheus
#>  5     5 2024-01-01 16:15:00 W     SC4001     mrpheus
#>  6     6 2024-01-01 16:15:30 W     SC4001     mrpheus
#>  7     7 2024-01-01 16:16:00 W     SC4001     mrpheus
#>  8     8 2024-01-01 16:16:30 W     SC4001     mrpheus
#>  9     9 2024-01-01 16:17:00 W     SC4001     mrpheus
#> 10    10 2024-01-01 16:17:30 W     SC4001     mrpheus
#> # ℹ 2,640 more rows
```
…
``` r

result <- zeitR::run_pipeline(
  system.file("extdata", "input1.txt", package = "zeitR"),
  tz    = "UTC",
  quiet = TRUE
)

zeitr_hyp <- zeitR::export_hypnogram(result)
hyp_coarse <- new_hypnogram(zeitr_hyp)
hyp_coarse
#> # A tibble: 76,196 × 5
#>    epoch time                stage subject_id source
#>  * <int> <dttm>              <ord> <chr>      <chr> 
#>  1     1 2021-05-27 11:10:15 W     input1     zeitR 
#>  2     2 2021-05-27 11:11:15 W     input1     zeitR 
#>  3     3 2021-05-27 11:12:15 W     input1     zeitR 
#>  4     4 2021-05-27 11:13:15 W     input1     zeitR 
#>  5     5 2021-05-27 11:14:15 W     input1     zeitR 
#>  6     6 2021-05-27 11:15:15 W     input1     zeitR 
#>  7     7 2021-05-27 11:16:15 W     input1     zeitR 
#>  8     8 2021-05-27 11:17:15 W     input1     zeitR 
#>  9     9 2021-05-27 11:18:15 W     input1     zeitR 
#> 10    10 2021-05-27 11:19:15 W     input1     zeitR 
#> # ℹ 76,186 more rows
```
…
