Coarse hypnograms from actigraphy: a worked example with zeitR • hypnoR
…
Picking the right night

input1.txt spans several nights
(result$nights), so running metrics over the
entire multi-day recording would be exactly the kind of mistake
covered in the mrpheus article: TST would represent
multiple nights’ sleep combined, and SOL would be measured
from the very start of the whole file rather than from any single
night’s actual bedtime.

result$nights
#> # A tibble: 55 × 11
#>    night is_nap bed_time            get_up_time           tbt   tst  waso   sol
#>    <int> <lgl>  <dttm>              <dttm>              <int> <dbl> <dbl> <int>
#>  1     1 FALSE  2021-05-27 23:42:15 2021-05-28 06:54:15   432   414    18     0
#>  2     2 FALSE  2021-05-28 23:30:15 2021-05-29 07:16:15   466   440    25     0
#>  3     3 FALSE  2021-05-30 09:28:15 2021-05-30 12:58:15   210   197     0     8
#>  4     4 FALSE  2021-05-30 22:18:15 2021-05-31 07:58:15   580   553    27     0
#>  5     5 FALSE  2021-05-31 23:24:15 2021-06-01 07:14:15   470   456    12     0
#>  6     6 FALSE  2021-06-02 00:10:15 2021-06-02 07:19:15   429   406    23     0
#>  7     7 FALSE  2021-06-02 23:05:15 2021-06-03 07:47:15   522   492    30     0
#>  8     8 FALSE  2021-06-04 00:01:54 2021-06-04 08:29:54   508   469    39     0
#>  9     9 FALSE  2021-06-04 23:36:54 2021-06-05 05:20:54   344   321     4     9
#> 10    10 FALSE  2021-06-06 00:34:54 2021-06-06 07:30:54   416   401    15     0
#> # ℹ 45 more rows
#> # ℹ 3 more variables: soi <int>, nw <int>, eff <dbl>
…
